<svg width="18" height="18" viewBox="0 0 18 18" fill="none" xmlns="http://www.w3.org/2000/svg">
<path d="M16 2L2 16" stroke="#fff" stroke-width="2" stroke-miterlimit="10" stroke-linecap="square"/>
<path d="M16 16L2 2" stroke="#fff" stroke-width="2" stroke-miterlimit="10" stroke-linecap="square"/>
</svg>
